<svg width="128" height="110" viewBox="0 0 128 110" fill="none" xmlns="http://www.w3.org/2000/svg">
<g id="Group 11.1">
<g id="Rectangle 4">
<rect x="12.572" y="12.7007" width="102" height="86" rx="8" fill="white"/>
<rect x="13.572" y="13.7007" width="100" height="84" rx="7" stroke="black" stroke-opacity="0.88" stroke-width="2"/>
</g>
<path id="Rectangle 2" d="M80.9803 68.2899L81.5822 68.7436L82.1842 68.2899L98.1645 56.2447V79.7439H29.8355V54.7372L46.4178 42.2383L80.9803 68.2899Z" fill="#FD9E16" stroke="#222222" stroke-width="2"/>
<rect id="Rectangle 3" x="73.7911" y="28.7336" width="15.5822" height="15.6702" rx="7.79112" fill="white" stroke="#252F3D" stroke-width="2"/>
<g id="Rectangle 10">
<rect y="101.715" width="158.24" height="10.5493" rx="5.27467" transform="rotate(-40 0 101.715)" fill="#EBEBEB"/>
<rect x="1.40883" y="101.838" width="156.24" height="8.54935" rx="4.27467" transform="rotate(-40 1.40883 101.838)" stroke="black" stroke-opacity="0.88" stroke-width="2"/>
</g>
</g>
</svg>
